{
  "page": 1,
  "total_results": 10000,
  "total_pages": 500,
  "results": [
    {
      "original_name": "Doctor Who",
      "genre_ids": [
        18,
        10759,
        10765
      ],
      "name": "Doctor Who",
      "popularity": 147.431,
      "origin_country": [
        "GB"
      ],
      "vote_count": 1728,
      "first_air_date": "2005-03-26",
      "backdrop_path": "/nfH8SZJVOxcBlFaqqtoqS5hHizG.jpg",
      "original_language": "en",
      "id": 57243,
      "vote_average": 7,
      "overview": "The Doctor is a Time Lord: a 900 year old alien with 2 hearts, part of a gifted civilization who mastered time travel. The Doctor saves planets for a living—more of a hobby actually, and the Doctor's very, very good at it.",
      "poster_path": "/cDDb7WA2i7cENhkEEjXEDrXGyNL.jpg"
    },
    {
      "original_name": "Arrow",
      "genre_ids": [
        80,
        18,
        9648,
        10759
      ],
      "name": "Arrow",
      "popularity": 135.719,
      "origin_country": [
        "US"
      ],
      "vote_count": 3753,
      "first_air_date": "2012-10-10",
      "backdrop_path": "/fFT7T9y9NVRdcdVh81roVrJBcDh.jpg",
      "original_language": "en",
      "id": 1412,
      "vote_average": 6.3,
      "overview": "Spoiled billionaire playboy Oliver Queen is missing and presumed dead when his yacht is lost at sea. He returns five years later a changed man, determined to clean up the city as a hooded vigilante armed with a bow.",
      "poster_path": "/gKG5QGz5Ngf8fgWpBsWtlg5L2SF.jpg"
    },
    {
      "original_name": "Lucifer",
      "genre_ids": [
        80,
        10765
      ],
      "name": "Lucifer",
      "popularity": 135.788,
      "origin_country": [
        "US"
      ],
      "vote_count": 3188,
      "first_air_date": "2016-01-25",
      "backdrop_path": "/vauFEN12Exuck3nO9WWmjB1R5cJ.jpg",
      "original_language": "en",
      "id": 63174,
      "vote_average": 8.3,
      "overview": "Bored and unhappy as the Lord of Hell, Lucifer Morningstar abandoned his throne and retired to Los Angeles, where he has teamed up with LAPD detective Chloe Decker to take down criminals. But the longer he's away from the underworld, the greater the threat that the worst of humanity could escape.",
      "poster_path": "/4EYPN5mVIhKLfxGruy7Dy41dTVn.jpg"
    }
  ]
}