{
  "page": 1,
  "total_results": 10000,
  "total_pages": 500,
  "results": [
    {
      "original_name": "Law & Order: Special Victims Unit",
      "id": 2734,
      "name": "Law & Order: Special Victims Unit",
      "popularity": 156.419,
      "vote_count": 1476,
      "vote_average": 7.3,
      "first_air_date": "1999-09-20",
      "poster_path": "/6t6r1VGQTTQecN4V0sZeqsmdU9g.jpg",
      "genre_ids": [
        80,
        18
      ],
      "original_language": "en",
      "backdrop_path": "/cD9PxbrdWYgL7MUpD9eOYuiSe2P.jpg",
      "overview": "In the criminal justice system, sexually-based offenses are considered especially heinous. In New York City, the dedicated detectives who investigate these vicious felonies are members of an elite squad known as the Special Victims Unit. These are their stories.",
      "origin_country": [
        "US"
      ]
    },
    {
      "original_name": "Supernatural",
      "genre_ids": [
        18,
        9648,
        10765
      ],
      "name": "Supernatural",
      "popularity": 158.23,
      "origin_country": [
        "US"
      ],
      "vote_count": 3457,
      "first_air_date": "2005-09-13",
      "backdrop_path": "/nVRyd8hlg0ZLxBn9RaI7mUMQLnz.jpg",
      "original_language": "en",
      "id": 1622,
      "vote_average": 7.9,
      "overview": "When they were boys, Sam and Dean Winchester lost their mother to a mysterious and demonic supernatural force. Subsequently, their father raised them to be soldiers. He taught them about the paranormal evil that lives in the dark corners and on the back roads of America ... and he taught them how to kill it. Now, the Winchester brothers crisscross the country in their '67 Chevy Impala, battling every kind of supernatural threat they encounter along the way. ",
      "poster_path": "/KoYWXbnYuS3b0GyQPkbuexlVK9.jpg"
    },
    {
      "original_name": "Friends",
      "genre_ids": [
        35,
        18
      ],
      "name": "Friends",
      "popularity": 142.827,
      "origin_country": [
        "US"
      ],
      "vote_count": 2844,
      "first_air_date": "1994-09-22",
      "backdrop_path": "/l0qVZIpXtIo7km9u5Yqh0nKPOr5.jpg",
      "original_language": "en",
      "id": 1668,
      "vote_average": 8.2,
      "overview": "The misadventures of a group of friends as they navigate the pitfalls of work, life and love in Manhattan.",
      "poster_path": "/f496cm9enuEsZkSPzCwnTESEK5s.jpg"
    },
    {
      "original_name": "The Flash",
      "genre_ids": [
        18,
        10765
      ],
      "name": "The Flash",
      "popularity": 138.156,
      "origin_country": [
        "US"
      ],
      "vote_count": 5235,
      "first_air_date": "2014-10-07",
      "backdrop_path": "/jC1KqsFx8ZyqJyQa2Ohi7xgL7XC.jpg",
      "original_language": "en",
      "id": 60735,
      "vote_average": 7.4,
      "overview": "After a particle accelerator causes a freak storm, CSI Investigator Barry Allen is struck by lightning and falls into a coma. Months later he awakens with the power of super speed, granting him the ability to move through Central City like an unseen guardian angel. Though initially excited by his newfound powers, Barry is shocked to discover he is not the only \"meta-human\" who was created in the wake of the accelerator explosion -- and not everyone is using their new powers for good. Barry partners with S.T.A.R. Labs and dedicates his life to protect the innocent. For now, only a few close friends and associates know that Barry is literally the fastest man alive, but it won't be long before the world learns what Barry Allen has become...The Flash.",
      "poster_path": "/wHa6KOJAoNTFLFtp7wguUJKSnju.jpg"
    },
    {
      "original_name": "Family Guy",
      "genre_ids": [
        16,
        35
      ],
      "name": "Family Guy",
      "popularity": 124.601,
      "origin_country": [
        "US"
      ],
      "vote_count": 2215,
      "first_air_date": "1999-01-31",
      "backdrop_path": "/4oE4vT4q0AD2cX3wcMBVzCsME8G.jpg",
      "original_language": "en",
      "id": 1434,
      "vote_average": 6.7,
      "overview": "Sick, twisted, politically incorrect and Freakin' Sweet animated series featuring the adventures of the dysfunctional Griffin family. Bumbling Peter and long-suffering Lois have three kids. Stewie (a brilliant but sadistic baby bent on killing his mother and taking over the world), Meg (the oldest, and is the most unpopular girl in town) and Chris (the middle kid, he's not very bright but has a passion for movies). The final member of the family is Brian - a talking dog and much more than a pet, he keeps Stewie in check whilst sipping Martinis and sorting through his own life issues.",
      "poster_path": "/q3E71oY6qgAEiw6YZIHDlHSLwer.jpg"
    },
    {
      "original_name": "ドラゴンボールゼット",
      "genre_ids": [
        16,
        35,
        10759,
        10765
      ],
      "name": "Dragon Ball Z",
      "popularity": 138.211,
      "origin_country": [
        "JP"
      ],
      "vote_count": 1159,
      "first_air_date": "1989-04-26",
      "backdrop_path": "/v7J7q0yMAPbocBgiv39hpAMEcRf.jpg",
      "original_language": "ja",
      "id": 12971,
      "vote_average": 8.1,
      "overview": "Five years have passed since the fight with Piccolo Jr., and Goku now has a son, Gohan. The peace is interrupted when an alien named Raditz arrives on Earth in a spacecraft and tracks down Goku, revealing to him that that they are members of a near-extinct warrior race called the Saiyans.",
      "poster_path": "/f2zhRLqwRLrKhEMeIM7Z5buJFo3.jpg"
    },
    {
      "original_name": "The Simpsons",
      "genre_ids": [
        16,
        35
      ],
      "name": "The Simpsons",
      "popularity": 132.829,
      "origin_country": [
        "US"
      ],
      "vote_count": 4197,
      "first_air_date": "1989-12-16",
      "backdrop_path": "/adZ9ldSlkGfLfsHNbh37ZThCcgU.jpg",
      "original_language": "en",
      "id": 456,
      "vote_average": 7.6,
      "overview": "Set in Springfield, the average American town, the show focuses on the antics and everyday adventures of the Simpson family; Homer, Marge, Bart, Lisa and Maggie, as well as a virtual cast of thousands. Since the beginning, the series has been a pop culture icon, attracting hundreds of celebrities to guest star. The show has also made name for itself in its fearless satirical take on politics, media and American life in general.",
      "poster_path": "/qcr9bBY6MVeLzriKCmJOv1562uY.jpg"
    },
    {
      "original_name": "ポケモン",
      "genre_ids": [
        16,
        10759,
        10762,
        10765
      ],
      "name": "Pokémon",
      "popularity": 142.642,
      "origin_country": [
        "JP"
      ],
      "vote_count": 369,
      "first_air_date": "1997-04-01",
      "backdrop_path": "/tvjCdVRkaaab2ezM9BctkAOXeyW.jpg",
      "original_language": "ja",
      "id": 60572,
      "vote_average": 6.8,
      "overview": "Join Ash Ketchum, accompanied by his partner Pikachu, as he travels through many regions, meets new friends and faces new challenges on his quest to become a Pokémon Master.",
      "poster_path": "/rOuGm07PxBhEsK9TaGPRQVJQm1X.jpg"
    },
    {
      "original_name": "Grey's Anatomy",
      "genre_ids": [
        18
      ],
      "name": "Grey's Anatomy",
      "popularity": 121.934,
      "origin_country": [
        "US"
      ],
      "vote_count": 3097,
      "first_air_date": "2005-03-27",
      "backdrop_path": "/edmk8xjGBsYVIf4QtLY9WMaMcXZ.jpg",
      "original_language": "en",
      "id": 1416,
      "vote_average": 7.9,
      "overview": "Follows the personal and professional lives of a group of doctors at Seattle’s Grey Sloan Memorial Hospital.",
      "poster_path": "/jnsvc7gCKocXnrTXF6p03cICTWb.jpg"
    },
    {
      "original_name": "Marvel's Agents of S.H.I.E.L.D.",
      "genre_ids": [
        18,
        10759,
        10765
      ],
      "name": "Marvel's Agents of S.H.I.E.L.D.",
      "popularity": 120.68,
      "origin_country": [
        "US"
      ],
      "vote_count": 1924,
      "first_air_date": "2013-09-24",
      "backdrop_path": "/mUCV0W6TaAk8UWA5yAmqCywC63F.jpg",
      "original_language": "en",
      "id": 1403,
      "vote_average": 7.2,
      "overview": "Agent Phil Coulson of S.H.I.E.L.D. (Strategic Homeland Intervention, Enforcement and Logistics Division) puts together a team of agents to investigate the new, the strange and the unknown around the globe, protecting the ordinary from the extraordinary.",
      "poster_path": "/gHUCCMy1vvj58tzE3dZqeC9SXus.jpg"
    },
    {
      "original_name": "仮面ライダ",
      "genre_ids": [
        18,
        10759,
        10765
      ],
      "name": "Kamen Rider",
      "popularity": 132.938,
      "origin_country": [
        "JP"
      ],
      "vote_count": 40,
      "first_air_date": "1971-04-03",
      "backdrop_path": null,
      "original_language": "ja",
      "id": 2661,
      "vote_average": 5.3,
      "overview": "A Japanese anthology series centered around a man who transforms into a bug-themed superhero.",
      "poster_path": "/o57T19zgZakEpre3d9ddy1UZonp.jpg"
    },
    {
      "original_name": "NCIS",
      "genre_ids": [
        80,
        18,
        10759
      ],
      "name": "NCIS",
      "popularity": 129.637,
      "origin_country": [
        "US"
      ],
      "vote_count": 1065,
      "first_air_date": "2003-09-23",
      "backdrop_path": "/4VuCtYBvZGq6Rk3gloigwlsTefE.jpg",
      "original_language": "en",
      "id": 4614,
      "vote_average": 7,
      "overview": "From murder and espionage to terrorism and stolen submarines, a team of special agents investigates any crime that has a shred of evidence connected to Navy and Marine Corps personnel, regardless of rank or position.",
      "poster_path": "/fi8EvaWtL5CvoielOjjVvTr7ux3.jpg"
    },
    {
      "original_name": "The Umbrella Academy",
      "genre_ids": [
        35,
        18,
        10759,
        10765
      ],
      "name": "The Umbrella Academy",
      "popularity": 147.891,
      "origin_country": [
        "US"
      ],
      "vote_count": 835,
      "first_air_date": "2019-02-15",
      "backdrop_path": "/qJxzjUjCpTPvDHldNnlbRC4OqEh.jpg",
      "original_language": "en",
      "id": 75006,
      "vote_average": 8.3,
      "overview": "A dysfunctional family of superheroes comes together to solve the mystery of their father's death, the threat of the apocalypse and more.",
      "poster_path": "/scZlQQYnDVlnpxFTxaIv2g0BWnL.jpg"
    },
    {
      "original_name": "South Park",
      "genre_ids": [
        16,
        35
      ],
      "name": "South Park",
      "popularity": 89.855,
      "origin_country": [
        "US"
      ],
      "vote_count": 1688,
      "first_air_date": "1997-08-13",
      "backdrop_path": "/gLf7hpvlDgqLDp6IUhTQTMivu6h.jpg",
      "original_language": "en",
      "id": 2190,
      "vote_average": 8,
      "overview": "Follows the misadventures of four irreverent grade-schoolers in the quiet, dysfunctional town of South Park, Colorado.",
      "poster_path": "/9BvRze9keEyTzB6ewmDvjzFGYuG.jpg"
    },
    {
      "original_name": "It's Always Sunny in Philadelphia",
      "genre_ids": [
        35
      ],
      "name": "It's Always Sunny in Philadelphia",
      "popularity": 86.476,
      "origin_country": [
        "US"
      ],
      "vote_count": 498,
      "first_air_date": "2005-08-04",
      "backdrop_path": "/w6t8mFlyB6JKcEGm3cojvylIc5O.jpg",
      "original_language": "en",
      "id": 2710,
      "vote_average": 8.2,
      "overview": "Four egocentric friends who run a neighborhood Irish pub in Philadelphia try to find their way through the adult world of work and relationships. Unfortunately, their warped views and precarious judgments often lead them to trouble, creating a myriad of uncomfortable situations that usually only get worse before they get better.",
      "poster_path": "/xX3vAWdCb828T48HM9OvvD0p4PC.jpg"
    },
    {
      "original_name": "Game of Thrones",
      "genre_ids": [
        18,
        10765
      ],
      "name": "Game of Thrones",
      "popularity": 100.867,
      "origin_country": [
        "US"
      ],
      "vote_count": 9541,
      "first_air_date": "2011-04-17",
      "backdrop_path": "/suopoADq0k8YZr4dQXcU6pToj6s.jpg",
      "original_language": "en",
      "id": 1399,
      "vote_average": 8.3,
      "overview": "Seven noble families fight for control of the mythical land of Westeros. Friction between the houses leads to full-scale war. All while a very ancient evil awakens in the farthest north. Amidst the war, a neglected military order of misfits, the Night's Watch, is all that stands between the realms of men and icy horrors beyond.",
      "poster_path": "/u3bZgnGQ9T01sWNhyveQz0wH0Hl.jpg"
    },
    {
      "original_name": "The Smurfs",
      "genre_ids": [
        16,
        10751,
        10762,
        10765
      ],
      "name": "The Smurfs",
      "popularity": 84.506,
      "origin_country": [
        "BE",
        "US"
      ],
      "vote_count": 161,
      "first_air_date": "1981-09-12",
      "backdrop_path": "/7HYHXRfHreJD4afBed08nLsXPVN.jpg",
      "original_language": "en",
      "id": 5687,
      "vote_average": 6.5,
      "overview": "Classic Saturday-morning cartoon series featuring magical blue elf-like creatures called Smurfs. The Smurfs, named for their personalities, inhabit a village of mushroom houses in an enchanted forest. These loveable creatures are led by Papa Smurf and live carefree... except for one major threat to their existance: Gargamel, an evil but inept wizard who lives in a stone-built house in the forest; and his feline companion, the equally nasty Azrael. ",
      "poster_path": "/ozlfM7st1MlcfNRUGHEOoDEccNr.jpg"
    },
    {
      "original_name": "ナルト",
      "genre_ids": [
        16,
        35,
        18,
        10759
      ],
      "name": "Naruto",
      "popularity": 110.632,
      "origin_country": [
        "JP"
      ],
      "vote_count": 1540,
      "first_air_date": "2002-10-03",
      "backdrop_path": "/6tWJaE0XEEkB7lpxDE7F3Mmhtt6.jpg",
      "original_language": "ja",
      "id": 46260,
      "vote_average": 8.4,
      "overview": "In another world, ninja are the ultimate power, and in the Village Hidden in the Leaves live the stealthiest ninja in the land. Twelve years earlier, the fearsome Nine-Tailed Fox terrorized the village and claimed many lives before it was subdued and its spirit sealed within the body of a baby boy. That boy, Naruto Uzumaki, has grown up to become a ninja-in-training who's more interested in pranks than in studying ninjutsu.. but Naruto is determined to become the greatest ninja ever!",
      "poster_path": "/vauCEnR7CiyBDzRCeElKkCaXIYu.jpg"
    },
    {
      "original_name": "Criminal Minds",
      "genre_ids": [
        80,
        18,
        9648
      ],
      "name": "Criminal Minds",
      "popularity": 111.578,
      "origin_country": [
        "US"
      ],
      "vote_count": 1395,
      "first_air_date": "2005-09-22",
      "backdrop_path": "/nWw20ipGipwdOyLTkFfX2Uz4Grp.jpg",
      "original_language": "en",
      "id": 4057,
      "vote_average": 7.9,
      "overview": "An elite team of FBI profilers analyze the country's most twisted criminal minds, anticipating their next moves before they strike again. The Behavioral Analysis Unit's most experienced agent is David Rossi, a founding member of the BAU who returns to help the team solve new cases.",
      "poster_path": "/7TCwgX7oQKxcWYEhSPRmaHe6ULN.jpg"
    },
    {
      "original_name": "Arrow",
      "genre_ids": [
        80,
        18,
        9648,
        10759
      ],
      "name": "Arrow",
      "popularity": 94.269,
      "origin_country": [
        "US"
      ],
      "vote_count": 3761,
      "first_air_date": "2012-10-10",
      "backdrop_path": "/fFT7T9y9NVRdcdVh81roVrJBcDh.jpg",
      "original_language": "en",
      "id": 1412,
      "vote_average": 6.3,
      "overview": "Spoiled billionaire playboy Oliver Queen is missing and presumed dead when his yacht is lost at sea. He returns five years later a changed man, determined to clean up the city as a hooded vigilante armed with a bow.",
      "poster_path": "/gKG5QGz5Ngf8fgWpBsWtlg5L2SF.jpg"
    }
  ]
}